<?xml version="1.0" encoding="utf-8"?>
<!-- Generator: Adobe Illustrator 21.0.0, SVG Export Plug-In . SVG Version: 6.00 Build 0)  -->
<svg version="1.1" id="Layer_1" xmlns="http://www.w3.org/2000/svg" xmlns:xlink="http://www.w3.org/1999/xlink" x="0px" y="0px"
	 viewBox="0 0 478.2 104.3" style="enable-background:new 0 0 478.2 104.3;" xml:space="preserve">
<style type="text/css">
	.st0{fill:#FFFFFF;}
	.st1{fill:none;}
</style>
<path class="st0" d="M462.6,64.9h-16.8V36.3c0-0.3-0.2-0.5-0.5-0.5h-3.8c-0.3,0-0.5,0.2-0.5,0.5v32.5c0,0.3,0.2,0.5,0.5,0.5h21.1
	c0.3,0,0.5-0.2,0.5-0.5v-3.4C463.2,65.1,462.9,64.9,462.6,64.9"/>
<path class="st0" d="M360.2,34.9c-9.5,0-15.7,8-15.7,17.6c0,9.6,6.2,17.7,15.7,17.7c9.5,0,15.7-8.1,15.8-17.7
	C376,42.9,369.8,34.9,360.2,34.9 M360.2,65.6c-6.9,0-10.6-6.1-10.6-13.2c0-7.2,3.6-13,10.6-13c7,0,10.6,5.8,10.6,13
	C370.9,59.4,367.2,65.6,360.2,65.6"/>
<path class="st0" d="M164.5,51.3c2-0.8,3.9-3.7,3.9-6.5c0-2.5-0.7-4.8-2.3-6.4c-1.6-1.6-4.2-2.7-7.5-2.7h-11.6
	c-0.3,0-0.5,0.2-0.5,0.5v32.5c0,0.3,0.2,0.5,0.5,0.5h12.3c3.3,0,6-0.9,7.9-2.6c1.9-1.7,3-4.2,3-7.3
	C170.2,55.2,167.5,52.3,164.5,51.3 M151.3,40.1h7c3.1,0,5.3,2.2,5.3,4.7c0,2.7-2.1,4.7-5.5,4.7h-6.7V40.1z M159.2,64.9h-7.9v-11h7.6
	c3.9,0,6.4,2.2,6.4,5.5C165.3,62.6,162.6,64.9,159.2,64.9"/>
<path class="st0" d="M139.8,35.7h-3.9c-0.3,0-0.5,0.2-0.5,0.5v32.5c0,0.3,0.2,0.5,0.5,0.5h3.9c0.3,0,0.5-0.2,0.5-0.5V36.3
	C140.3,36,140.1,35.7,139.8,35.7"/>
<path class="st0" d="M129.8,64.9h-16.3V36.3c0-0.3-0.2-0.5-0.5-0.5h-3.8c-0.3,0-0.5,0.2-0.5,0.5v32.5c0,0.3,0.2,0.5,0.5,0.5h20.6
	c0.3,0,0.5-0.2,0.5-0.5v-3.4C130.3,65.1,130.1,64.9,129.8,64.9"/>
<path class="st0" d="M194.4,64.9h-14.7V53.8h10.7c0.3,0,0.5-0.2,0.5-0.5v-3.4c0-0.3-0.2-0.5-0.5-0.5h-10.8v-9.2h14.5
	c0.3,0,0.5-0.2,0.5-0.5v-3.4c0-0.3-0.2-0.5-0.5-0.5h-18.9c-0.3,0-0.5,0.2-0.5,0.5v32.5c0,0.3,0.2,0.5,0.5,0.5h19.2
	c0.3,0,0.5-0.2,0.5-0.5v-3.4C195,65.1,194.7,64.9,194.4,64.9"/>
<path class="st0" d="M399,51.3c2-0.8,3.9-3.7,3.9-6.5c0-2.5-0.7-4.8-2.3-6.4c-1.6-1.6-4.2-2.7-7.5-2.7h-11.7c-0.3,0-0.5,0.2-0.5,0.5
	v32.5c0,0.3,0.2,0.5,0.5,0.5h12.3c3.3,0,6-0.9,8-2.6c1.9-1.7,3-4.2,3-7.3C404.7,55.2,402,52.3,399,51.3 M385.7,40.1h7
	c3.1,0,5.3,2.2,5.3,4.7c0,2.7-2.1,4.7-5.5,4.7h-6.8V40.1z M393.7,64.9h-7.9v-11h7.7c3.9,0,6.4,2.2,6.4,5.5
	C399.8,62.6,397.1,64.9,393.7,64.9"/>
<path class="st0" d="M344.2,64.9h-16.1V36.3c0-0.3-0.2-0.5-0.5-0.5h-3.8c-0.3,0-0.5,0.2-0.5,0.5v32.5c0,0.3,0.2,0.5,0.5,0.5h20.4
	c0.3,0,0.5-0.2,0.5-0.5v-3.4C344.7,65.1,344.4,64.9,344.2,64.9"/>
<path class="st0" d="M247.4,35.7H225c-0.3,0-0.5,0.2-0.5,0.5v3.3c0,0.3,0.2,0.5,0.5,0.5h8.7v28.6c0,0.3,0.2,0.5,0.5,0.5h3.8
	c0.3,0,0.5-0.2,0.5-0.5l0-28.6h8.8c0.3,0,0.5-0.2,0.5-0.5v-3.3C247.9,36,247.7,35.7,247.4,35.7"/>
<path class="st0" d="M277.7,35.7h-4.6c-0.2,0-0.4,0.1-0.5,0.3l-8.1,15l-8.1-15c-0.1-0.2-0.3-0.3-0.5-0.3h-4.6
	c-0.3,0-0.5,0.2-0.5,0.5c0,0.1,0,0.2,0.1,0.3l11.1,19.6v12.6c0,0.3,0.2,0.5,0.5,0.5h3.8c0.3,0,0.5-0.2,0.5-0.5V56.2l11.1-19.6
	c0-0.1,0.1-0.2,0.1-0.3C278.2,35.9,278,35.7,277.7,35.7"/>
<path class="st0" d="M424.7,36.1c-0.1-0.2-0.3-0.4-0.6-0.4h-4.6c-0.3,0-0.5,0.2-0.6,0.4l-12.1,32.4c0,0.1,0,0.1,0,0.2
	c0,0.3,0.2,0.5,0.5,0.5l4.1,0c0.2,0,0.4-0.1,0.5-0.3l2.9-8.2h14l2.9,8.2c0.1,0.2,0.3,0.3,0.5,0.3l4.1,0c0.3,0,0.5-0.2,0.5-0.5
	c0-0.1,0-0.1,0-0.2L424.7,36.1z M416.4,56.5l5.5-15l5.5,15H416.4z"/>
<path class="st0" d="M317.3,52h-11.4c-0.3,0-0.5,0.2-0.5,0.5v3.4c0,0.3,0.2,0.5,0.5,0.5l7.2,0l0,6.6c-1.9,1.5-4.2,2.6-7.9,2.6
	c-7,0-10.9-6.1-10.9-13.1c0-7.4,3.9-13.1,10.9-13.1c3.7,0,6.6,1.7,8.4,3.4c0.3,0.2,0.5,0.2,0.8-0.1l2.3-2.7c0.1-0.1,0.1-0.2,0.1-0.4
	c0-0.2-0.1-0.3-0.2-0.4c-2.4-2.2-6.1-4.4-11.5-4.4c-10,0-16,7.8-16,17.6c0,9.5,6.4,17.5,15.8,17.6v0h0.1h0c6.2,0,10.2-2.4,12.6-4.6
	c0.1-0.1,0.2-0.3,0.2-0.5V52.5C317.9,52.2,317.6,52,317.3,52"/>
<path class="st0" d="M215.9,55.3c4.2-1.6,6.1-5.3,6.1-9.5c0-2.4-0.8-4.9-2.6-6.8c-1.9-1.9-4.8-3.2-9.1-3.2h-9.8
	c-0.3,0-0.5,0.2-0.5,0.5v32.5c0,0.3,0.2,0.5,0.5,0.5h3.8c0.3,0,0.5-0.2,0.5-0.5V56.1h6.1l8.2,12.9c0.1,0.2,0.3,0.3,0.6,0.3h4.3
	c0.3,0,0.5-0.2,0.5-0.5c0-0.1,0-0.2-0.1-0.3L215.9,55.3z M210.6,51.7h-5.8V40.1h5.7c4,0,6.3,2.2,6.3,5.8
	C216.8,49.3,214.8,51.7,210.6,51.7"/>
<path class="st0" d="M10.4,58.5c-2.5-12.4-0.6-29.6,7.5-32.6c-0.4-4.2-0.3-9.3-0.2-13.5c0.1-4.5,0.4-7.8-1.1-7.6
	c-1.8,0.3-7.8,12.3-9.1,27.8c-0.5,5.6-0.1,11.2,0.7,16.2C8.8,52.1,9.5,55.3,10.4,58.5"/>
<path class="st0" d="M81.2,58.5c0.9-3.2,1.6-6.4,2.1-9.7c0.8-5.1,1.2-10.7,0.7-16.2c-1.3-15.4-7.2-27.5-9.1-27.8
	C73.6,4.6,73.8,8,74,12.5c0.1,4.2,0.1,9.3-0.2,13.5C81.9,28.9,83.7,46.2,81.2,58.5"/>
<path class="st0" d="M29.6,34.4c4.7,11.4,7.6,23.7,8.3,26.5c0.8-1.1,4-4.1,7.9-4.1c3.9,0,7.1,2.9,7.9,4.1c0.7-2.8,3.6-15.1,8.3-26.5
	c-0.2-2.1-1.4-8.4-1.9-10.7C59.2,19.4,54.9,0,45.8,0c-9.1,0-13.5,19.4-14.4,23.6C30.9,25.9,29.8,32.2,29.6,34.4"/>
<path class="st0" d="M27.5,30.7c1.6-9.3,3.1-14.8,5-19.9c-3.6,0.6-7.8,9.1-9.1,15.6C25.4,27.8,27.4,30.6,27.5,30.7"/>
<rect y="0" class="st1" width="478.2" height="104.3"/>
<path class="st0" d="M68.2,26.4c-1.3-6.5-5.5-15-9.1-15.6c1.9,5.1,3.5,10.6,5,19.9C64.2,30.6,66.2,27.8,68.2,26.4"/>
<path class="st0" d="M79.2,79.1c9.9-7.8,13.9-22.7,12.2-24.1c-0.9-0.3-2.6,3.3-4.9,7.7c-1.8,3.3-3.5,5.5-3.5,5.5s-0.2,0.2-0.2,0.2
	c-0.1,0,0.1-0.2,0.1-0.2c7.1-14.7,7.9-25.1,8.2-29.8c0.5-10.7-1.4-11.2-2.2-7.8c-0.9,4.1-2,9.3-2.8,14.4c-2.2,14.2-8.2,28.3-13,36
	c-0.7,1.1-1.3,1-1.5,0.8c-0.1-0.2,0-0.4,0.4-1.3c13.8-25.5,8-51.3-0.2-51.6c-7.8-0.3-15.3,30.6-16.2,34c5.3,9,6.6,21.6,6.2,24.7
	c0,0.3-0.3,0.5-0.5,0.5c-0.3,0-0.5-0.2-0.6-0.5c0-5.8-4.4-27.7-14.7-27.7S31.2,81.9,31.2,87.7c0,0.3-0.3,0.5-0.6,0.5
	c-0.3,0-0.5-0.2-0.5-0.5C29.8,84.6,31,72,36.3,63c-0.9-3.4-8.4-34.3-16.2-34C11.9,29.3,6,55,19.9,80.5c0.4,0.8,0.5,1.1,0.4,1.3
	c-0.2,0.2-0.8,0.3-1.5-0.8C14,73.3,7.9,59.2,5.8,45C5,39.9,3.9,34.7,3,30.6c-0.8-3.5-2.7-3-2.2,7.8c0.2,4.8,1,15.1,8.2,29.8
	c0,0,0.1,0.2,0,0.2c-0.1,0-0.2-0.2-0.2-0.2s-1.7-2.2-3.5-5.5c-2.3-4.4-4-8-4.9-7.7c-1.7,1.3,2.3,16.2,12.2,24.1c0,0,0.4,0.4,0.4,0.4
	c0,0.2-0.4-0.1-0.4-0.1c-3.9-2.4-9-7.7-9.9-5.8C2.2,75.9,10.2,85.3,23,89.9c0,0,0.9,0.3,0.9,0.5c0,0.2-0.5,0-0.5,0
	c-1.8-0.6-7.8-2.9-9.4-2.7c-1.7,0.2-0.7,1.4,0.9,2.8c1.6,1.4,8.8,5.7,18.7,6.4c0.1,0.9,3.5,4,12.3,4c8.8,0,12.3-3.1,12.3-4
	c9.9-0.7,17.2-5,18.7-6.4c1.6-1.4,2.5-2.6,0.9-2.8c-1.6-0.2-7.6,2.1-9.4,2.7c0,0-0.5,0.2-0.5,0c0-0.2,0.9-0.5,0.9-0.5
	C81.6,85.3,89.6,75.9,89,73.7c-0.9-1.9-6,3.4-9.9,5.8c0,0-0.4,0.2-0.4,0.1C78.7,79.5,79.2,79.1,79.2,79.1"/>
<path class="st0" d="M468.9,64.6c0-3.1,1.6-4.9,4.7-4.9c3.1,0,4.7,1.8,4.7,4.9c0,3.2-1.6,4.9-4.7,4.9
	C470.5,69.5,468.9,67.8,468.9,64.6 M477.6,64.6c0-2.9-1.4-4.4-4.1-4.4c-2.6,0-4,1.5-4,4.4c0,2.9,1.4,4.4,4,4.4
	C476.2,69,477.6,67.5,477.6,64.6 M471.9,62c0.5-0.1,1.2-0.1,1.7-0.1c1.1,0,1.9,0.3,1.9,1.5c0,0.9-0.5,1.4-1.4,1.6
	c0.4,0.7,0.9,1.5,1.4,2.3h-0.7c-0.5-0.8-0.9-1.5-1.3-2.3c-0.3,0-0.7,0-1-0.1v2.3h-0.6V62z M473.2,64.5c1.2,0,1.6-0.3,1.6-1.1
	c0-0.8-0.4-1-1.3-1c-0.3,0-0.8,0-1.1,0.1v2.1C472.7,64.5,473,64.5,473.2,64.5"/>
</svg>
